{
  "project_info": {
    "project_number": "454918045341",
    "firebase_url": "https://ny-times-articles-android-app.firebaseio.com",
    "project_id": "ny-times-articles-android-app",
    "storage_bucket": "ny-times-articles-android-app.appspot.com"
  },
  "client": [
    {
      "client_info": {
        "mobilesdk_app_id": "1:454918045341:android:75d3110ef49b7dec",
        "android_client_info": {
          "package_name": "com.nytimesnews"
        }
      },
      "oauth_client": [
        {
          "client_id": "454918045341-7mjrr2d5a8243e71oumiu2uhdbc9jre5.apps.googleusercontent.com",
          "client_type": 1,
          "android_info": {
            "package_name": "com.nytimesnews",
            "certificate_hash": "0bbab9a79577119dd94aa534ac962624b9be3a51"
          }
        },
        {
          "client_id": "454918045341-k7nt7krh21pb8v7us0pr0itlvihibv5b.apps.googleusercontent.com",
          "client_type": 3
        }
      ],
      "api_key": [
        {
          "current_key": "AIzaSyCsKLT4_T6UX8kiLmI84mOJ8RURN8bGTzI"
        }
      ],
      "services": {
        "analytics_service": {
          "status": 1
        },
        "appinvite_service": {
          "status": 2,
          "other_platform_oauth_client": [
            {
              "client_id": "454918045341-k7nt7krh21pb8v7us0pr0itlvihibv5b.apps.googleusercontent.com",
              "client_type": 3
            }
          ]
        },
        "ads_service": {
          "status": 2
        }
      }
    }
  ],
  "configuration_version": "1"
}